%YAML 1.1
%TAG !u! tag:unity3d.com,2011:
--- !u!1 &4563372229949465447
GameObject:
  m_ObjectHideFlags: 0
  m_CorrespondingSourceObject: {fileID: 0}
  m_PrefabInstance: {fileID: 0}
  m_PrefabAsset: {fileID: 0}
  serializedVersion: 6
  m_Component:
  - component: {fileID: 4563372229949465444}
  - component: {fileID: 4563372229949465445}
  m_Layer: 0
  m_Name: SceneNavManager
  m_TagString: Untagged
  m_Icon: {fileID: 0}
  m_NavMeshLayer: 0
  m_StaticEditorFlags: 0
  m_IsActive: 1
--- !u!4 &4563372229949465444
Transform:
  m_ObjectHideFlags: 0
  m_CorrespondingSourceObject: {fileID: 0}
  m_PrefabInstance: {fileID: 0}
  m_PrefabAsset: {fileID: 0}
  m_GameObject: {fileID: 4563372229949465447}
  m_LocalRotation: {x: 0, y: 0, z: 0, w: 1}
  m_LocalPosition: {x: -0.30511302, y: 0.235729, z: -4.275781}
  m_LocalScale: {x: 1, y: 1, z: 1}
  m_Children: []
  m_Father: {fileID: 0}
  m_RootOrder: 0
  m_LocalEulerAnglesHint: {x: 0, y: 0, z: 0}
--- !u!114 &4563372229949465445
MonoBehaviour:
  m_ObjectHideFlags: 0
  m_CorrespondingSourceObject: {fileID: 0}
  m_PrefabInstance: {fileID: 0}
  m_PrefabAsset: {fileID: 0}
  m_GameObject: {fileID: 4563372229949465447}
  m_Enabled: 1
  m_EditorHideFlags: 0
  m_Script: {fileID: 11500000, guid: 17799f95d55184e93a8087f43054f438, type: 3}
  m_Name: 
  m_EditorClassIdentifier: 
  doorObject: {fileID: 6239761009562973160, guid: 6a4ae2f7d30a443e58bcb9fed8bf9b51,
    type: 3}
  doorTileMap: {fileID: 0}
  spawnPointTileMap: {fileID: 0}
